<svg width="33" height="33" viewBox="0 0 33 33" fill="none" xmlns="http://www.w3.org/2000/svg">
<path d="M16.139 10.7326C13.1822 10.7326 10.7693 13.1456 10.7693 16.1024C10.7693 19.0592 13.1822 21.4721 16.139 21.4721C19.0958 21.4721 21.5088 19.0592 21.5088 16.1024C21.5088 13.1456 19.0958 10.7326 16.139 10.7326ZM32.2442 16.1024C32.2442 13.8788 32.2644 11.6753 32.1395 9.45566C32.0146 6.87754 31.4265 4.58945 29.5412 2.7042C27.652 0.814918 25.3679 0.230812 22.7898 0.105934C20.5661 -0.0189435 18.3626 0.0011982 16.143 0.0011982C13.9194 0.0011982 11.7159 -0.0189435 9.49631 0.105934C6.91819 0.230812 4.6301 0.818947 2.74485 2.7042C0.855568 4.59348 0.271462 6.87754 0.146584 9.45566C0.021706 11.6793 0.0418476 13.8828 0.0418476 16.1024C0.0418476 18.322 0.021706 20.5295 0.146584 22.7491C0.271462 25.3272 0.859597 27.6153 2.74485 29.5006C4.63413 31.3899 6.91819 31.974 9.49631 32.0988C11.7199 32.2237 13.9234 32.2036 16.143 32.2036C18.3667 32.2036 20.5702 32.2237 22.7898 32.0988C25.3679 31.974 27.656 31.3858 29.5412 29.5006C31.4305 27.6113 32.0146 25.3272 32.1395 22.7491C32.2684 20.5295 32.2442 18.326 32.2442 16.1024ZM16.139 24.3645C11.5669 24.3645 7.87693 20.6745 7.87693 16.1024C7.87693 11.5302 11.5669 7.84031 16.139 7.84031C20.7112 7.84031 24.4011 11.5302 24.4011 16.1024C24.4011 20.6745 20.7112 24.3645 16.139 24.3645ZM24.7395 9.43149C23.672 9.43149 22.8099 8.56943 22.8099 7.50193C22.8099 6.43442 23.672 5.57236 24.7395 5.57236C25.807 5.57236 26.669 6.43442 26.669 7.50193C26.6694 7.75541 26.6197 8.00647 26.5228 8.24072C26.426 8.47497 26.2838 8.68781 26.1046 8.86705C25.9254 9.04629 25.7125 9.18841 25.4783 9.28526C25.244 9.38212 24.993 9.43181 24.7395 9.43149Z" fill="#8063C7"/>
</svg>
