<svg width="34" height="32" viewBox="0 0 34 32" fill="none" xmlns="http://www.w3.org/2000/svg">
<path d="M7.73308 31.9999V10.8481H0.659178V31.9999H7.73308ZM4.19704 7.95846C6.66384 7.95846 8.1993 6.33425 8.1993 4.30452C8.15334 2.22903 6.66393 0.649902 4.24385 0.649902C1.82416 0.649902 0.241821 2.22906 0.241821 4.30452C0.241821 6.33434 1.7769 7.95846 4.15086 7.95846H4.19704ZM11.6485 31.9999H18.7224V20.1877C18.7224 19.5555 18.7683 18.924 18.9551 18.4721C19.4665 17.209 20.6305 15.9009 22.5846 15.9009C25.1443 15.9009 26.1684 17.8406 26.1684 20.684V31.9997H33.2418V19.8715C33.2418 13.3745 29.7519 10.3515 25.0977 10.3515C21.2816 10.3515 19.6061 12.4715 18.6753 13.9154H18.7225V10.8477H11.6486C11.7415 12.8324 11.6485 31.9999 11.6485 31.9999Z" fill="#8063C7"/>
</svg>
