<svg width="33" height="30" viewBox="0 0 33 30" fill="none" xmlns="http://www.w3.org/2000/svg">
<path d="M32.686 16.6105L28.2952 1.67346C28.0212 0.851684 27.3646 0.299805 26.4864 0.299805C25.6083 0.299805 24.8953 0.795288 24.6213 1.61707L21.7129 10.2941H11.5655L8.65709 1.62109C8.38317 0.799316 7.67016 0.303833 6.79198 0.303833C5.91381 0.303833 5.2008 0.851684 4.98327 1.67749L0.596426 16.6105C0.431265 17.1583 0.652823 17.7626 1.09191 18.0929L16.6171 29.7347L32.1946 18.0929C32.6296 17.7666 32.8512 17.1624 32.686 16.6105Z" fill="#8063C7"/>
</svg>
